[
  {
    "nav_logo": {
      "mobile": "https://i.ibb.co/TwWRFj9/logo.png",
      "desktop": "https://i.ibb.co/TwWRFj9/logo.png"
    },
    "nav_links": [
      {
        "text": "About Us",
        "link": "#about"
      },
      {
        "text": "Our Work",
        "link": "#work"
      },
      {
        "text": "News",
        "link": "#news"
      },
      {
        "text": "Career",
        "link": "#career"
      },
      {
        "text": "Contact us",
        "link": "#contact"
      }
    ],
    "home": {
      "slider": [
        {
          "alt": "",
          "url": "#",
          "icon": "",
          "subtext": "Our latest education and training event was held in Guatemala on April 12th",
          "headline": "We provide childrens education in Central America",
          "image": {
            "mobile": "https://i.ibb.co/PcQhQL8/main-banner.png",
            "desktop": "https://i.ibb.co/PcQhQL8/main-banner.png"
          },
          "buttons": [
            {
              "url": "#",
              "alt": "",
              "cta": "Find out more"
            }
          ]
        },
        {
          "alt": "",
          "url": "#",
          "icon": "",
          "subtext": "Our latest education and training event was held in Guatemala on April 12th",
          "headline": "We provide childrens education in Central America",
          "image": {
            "mobile": "https://i.ibb.co/PcQhQL8/main-banner.png",
            "desktop": "https://i.ibb.co/PcQhQL8/main-banner.png"
          },
          "buttons": [
            {
              "url": "#",
              "alt": "",
              "cta": "Find out more"
            }
          ]
        },
        {
          "alt": "",
          "url": "#",
          "icon": "",
          "subtext": "Our latest education and training event was held in Guatemala on April 12th",
          "headline": "We provide childrens education in Central America",
          "image": {
            "mobile": "https://i.ibb.co/PcQhQL8/main-banner.png",
            "desktop": "https://i.ibb.co/PcQhQL8/main-banner.png"
          },
          "buttons": [
            {
              "url": "#",
              "alt": "",
              "cta": "Find out more"
            }
          ]
        }
      ],
      "split": [
        {
          "header": "Our pledge to quality",
          "copy": "We provide education support in countries where the infrastructure is not as established as elsewhere. We seize opportunities and stay strong, even if it gets difficult.",
          "url": "#builds",
          "cta": "All Services"
        },
        {
          "image": {
            "mobile": "https://i.ibb.co/2MTX4Qt/New-Project.png",
            "desktop": "https://i.ibb.co/2MTX4Qt/New-Project.png"
          }
        }
      ]
    }
  }
]
